module gitlab.com/zerodevs/taskq

go 1.17

require (
	github.com/gomodule/redigo v1.8.5
	github.com/google/uuid v1.3.0
	github.com/prometheus/client_golang v1.11.0
	github.com/smallstep/assert v0.0.0-20200723003110-82e2b9b3b262
)

require (
	github.com/beorn7/perks v1.0.1 // indirect
	github.com/cespare/xxhash/v2 v2.1.1 // indirect
	github.com/golang/protobuf v1.4.3 // indirect
	github.com/matttproud/golang_protobuf_extensions v1.0.1 // indirect
	github.com/prometheus/client_model v0.2.0 // indirect
	github.com/prometheus/common v0.26.0 // indirect
	github.com/prometheus/procfs v0.6.0 // indirect
	golang.org/x/sys v0.0.0-20210603081109-ebe580a85c40 // indirect
	google.golang.org/protobuf v1.26.0-rc.1 // indirect
)
